Encoded token string:
 401 1001   40 1002   58  406   44 1003   58  405   41   Error! Comment is not closed! 

Identifier table:
          P 1001
         A1 1002
          B 1003


Keyword table:
  PROCEDURE  401
        VAR  402
      BEGIN  403
        END  404
    COMPLEX  405
    INTEGER  406
      FLOAT  407
 BLOCKFLOAT  408
        EXT  409


Single character delimiters:
      )      41
      ,      44
      .      46
      :      58
      ;      59